{
'imports':[		
],  
'plugins':[ 
			{'namespace':'prefabware.plugins','id':'prefabware.model'},
			{'namespace':'prefabware.plugins','id':'prefabware.model.tests.customizer'},
			{'namespace':'prefabware.plugins','id':'prefabware.model.local'}
			]
}