{ "id":"prefabware.bootstrap.widgets.navigation",
"comment":"navbars and homepage ",  
"extensionPoints" : [],
"extensions"   :[
 						
 						{"extensionPoint":"prefabware.bootstrap.homepage",
 										  "comment":"declares an id so it can be overridden",
 										  "id":"prefabware.bootstrap.homepage", 										  
 										  "widgetClass":"prefabware.plugins.prefabware.bootstrap.widgets.page.Home"},

 						{"extensionPoint":"prefabware.bootstrap.sidebar",
 										  "comment":"declares an id so it can be overridden",
 										  "id":"prefabware.bootstrap.sidebar",
 										  "singleton":true,
 										  "nodeSelector":".appdriver-sidebar",
 										  "widgetClass":"prefabware.plugins.prefabware.bootstrap.widgets.Sidebar"
 										  },
 						{"extensionPoint":"prefabware.bootstrap.sidebarNode",
 										  "id":"prefabware.bootstrap.sidebarNode",
 										  "singleton":true,
 										  "widgetClass":"prefabware.plugins.prefabware.bootstrap.widgets.SidebarNode"
 										  },
 						{"extensionPoint":"prefabware.bootstrap.navbar",
 										  "comment":"declare an id so it can be overridden",
 										  "id":"prefabware.bootstrap.navbar",
 										  "singleton":true,
 										  "nodeSelector":".appdriver-navbar",
 										  "widgetClass":"prefabware.plugins.prefabware.bootstrap.widgets.Navbar"
 										  },
 						
 						{"extensionPoint":"prefabware.action.action",
         							  "actionClass":"prefabware.plugins.prefabware.bootstrap.action.ActionOpenHomepage",
         							  "matcher"   : {
					 					"actionId"   : "openHomepage"}
					 					},
 						{"extensionPoint":"prefabware.action.action",
         							  "actionClass":"prefabware.plugins.prefabware.bootstrap.action.ActionOpenApi",
         							  "matcher"   : {
					 					"actionId"   : "openApi"
					              					}
  									  },
  									  
                        {"extensionPoint":"prefabware.ui.menuVisitor",
    						"matcher"     : {"value":"menu"}
										},
						{"extensionPoint":"prefabware.ui.menuVisitor",
    						"matcher"     : {"value":"sidebar"}
										},
						{"extensionPoint":"prefabware.ui.menuVisitable",
							"className":"prefabware.plugins.prefabware.bootstrap.ExtensionMenuVisitable",
    						"matcher"     : {"value":"menu"}
										},
						{"extensionPoint":"prefabware.ui.menuVisitable",
							"className":"prefabware.plugins.prefabware.bootstrap.ExtensionSidebarVisitable",
    						"matcher"     : {"value":"sidebar"}
										},
						{"extensionPoint":"prefabware.ui.menus",
  									  "menu":"homepage",
  									  "actionId":"openHomepage",
  									  "matcher":{"value":"menu"}
									   },
						{"extensionPoint":"prefabware.ui.menus",
  									  "menu":"api",
  									  "actionId":"openApi",
  									  "matcher":{"value":"menu"}
									   },
 						],  
 "dependencies" : [{"namespace":"prefabware.plugins","id":"prefabware.ui"},
 				   {"namespace":"prefabware.plugins","id":"prefabware.action"},
 				   {"namespace":"prefabware.plugins","id":"prefabware.resource"},
 				   {"namespace":"prefabware.plugins","id":"prefabware.action.base"},
 				   {"namespace":"prefabware.plugins","id":"prefabware.store"},
 				   {"namespace":"prefabware.plugins","id":"prefabware.bootstrap"}
 				  ]  		           
}