{ 'id':'prefabware.service', 'className':'prefabware.plugins.prefabware.service.Plugin',
  'extensionPoints' : [
  {'id':'prefabware.service.service', 'extensionClass':'prefabware.plugins.prefabware.service.ExtensionService','min':0,'max':99999},
  ],
  'dependencies' : [{'namespace':'prefabware.plugins','id':'prefabware.server'}
  					]  	
}