{ "id":"prefabware.bootstrap.widgets",
"comment":"Basic widgets. Sufficient to show a single editor or view, without menu and navigation",  
"extensionPoints" : [],
"extensions"   :[
 						{"extensionPoint":"prefabware.bootstrap.table",
 										  "comment":"declare an id so it can be overridden",
 										  "id":"prefabware.bootstrap.table", 										  
 										  "widgetClass":"prefabware.plugins.prefabware.bootstrap.widgets.Table",
 										  "templates":{
 										  		"templateString":"prefabware.plugins.prefabware.bootstrap.widgets.Table.html",
 										  		"templateString_th":"prefabware.plugins.prefabware.bootstrap.widgets.Table_th.html",
 										  		"templateString_th_action":"prefabware.plugins.prefabware.bootstrap.widgets.Table_th_action.html",
 										  		"templateString_row_action":"prefabware.plugins.prefabware.bootstrap.widgets.Table_row_action.html",
 										  		"templateString_row_action_a":"prefabware.plugins.prefabware.bootstrap.widgets.Table_row_action_a.html"
 										   			}
 										  },
 						{"extensionPoint":"prefabware.bootstrap.actionButton",
 										  "id":"prefabware.bootstrap.actionButton", 										  
 										  "widgetClass":"prefabware.plugins.prefabware.bootstrap.widgets.ActionButton",
 										  "templates":"prefabware.plugins.prefabware.bootstrap.widgets.ActionButton.html"
 										  },
 						{"extensionPoint":"prefabware.bootstrap.modal",
 										  "comment":"for modal dialogs",
 										  "id":"prefabware.bootstrap.modal", 										  
 										  "widgetClass":"prefabware.plugins.prefabware.bootstrap.widgets.Modal"},
 										  
 						{"extensionPoint":"prefabware.bootstrap.box",
 										  "comment":"a box for forms and views",
 										  "id":"prefabware.bootstrap.box", 										  
 										  "widgetClass":"prefabware.plugins.prefabware.bootstrap.widgets.Box"},		
					 		
 						
 						{"extensionPoint":"prefabware.action.action",
         							  "actionClass":"prefabware.plugins.prefabware.bootstrap.action.ActionOpenView",
         							  "matcher"   : {
					 					"actionId"   : "openView",
         							  	"type":".*"
					              					}
  									  },
 						{"extensionPoint":"prefabware.action.action",
         							  "actionClass":"prefabware.plugins.prefabware.bootstrap.action.ActionOpenEditor",
         							  "matcher"   : {
					 					"actionId"   : "openEditor",
         							  	"type":".*"
					              					}
  									  },
  									  
 						{"extensionPoint":"prefabware.ui.editorbinding","className":"prefabware.plugins.prefabware.bootstrap.ExtensionEditorBinding"},
                        {"extensionPoint":"prefabware.ui.controller"   ,"className":"prefabware.plugins.prefabware.bootstrap.ExtensionController"},
                        
                        {"extensionPoint":"prefabware.resource.resource"
  									  ,"namespace":"prefabware.plugins.prefabware.bootstrap.nls"
  									  ,"matcher"   : {
									  	"value"  : "label"
        											 }									  
  									  },
                        {"extensionPoint":"prefabware.resource.resource"
  									  ,"namespace":"prefabware.plugins.prefabware.bootstrap.nls"
  									  ,"matcher"   : {
									  	"value"  : "icon"
        											 }  									  
  									  },
                        {"extensionPoint":"prefabware.ui.notifier",
                        			  "id":"prefabware.ui.notifier",
  									  "className":"prefabware.plugins.prefabware.bootstrap.ExtensionNotifier"
  									  },
  									  
                         												  
  						{"extensionPoint":"prefabware.ui.widget",
  									  "id":"prefabware.bootstrap.inputNumberWidget",
  									  "matcher":{
  										  "type":"prefabware.model.NumberType"
  									  },
  									  "className":"prefabware.plugins.prefabware.bootstrap.ExtensionWidgetInput",
         							  "widgetClass":"prefabware.plugins.prefabware.bootstrap.widgets.InputTextWidget",							  
         							  "bindingClass":"prefabware.plugins.prefabware.bootstrap.WidgetBindingNumber"},							  
  						{"extensionPoint":"prefabware.ui.widget",
  									  "id":"prefabware.bootstrap.inputDateWidget",
   									  "matcher":{
	  									  "type":"prefabware.model.DateType"
  									  },
  									  "icon":"glyphicon glyphicon-calendar",
  									  "className":"prefabware.plugins.prefabware.bootstrap.ExtensionWidgetInput",
         							  "widgetClass":"prefabware.plugins.prefabware.bootstrap.widgets.InputDateWidget",							  
         							  "bindingClass":"prefabware.plugins.prefabware.bootstrap.WidgetBindingDate"},							  
  						{"extensionPoint":"prefabware.ui.widget",
  									  "id":"prefabware.bootstrap.editorWidget",
   									  "matcher":{
	  									  "type":"prefabware.model.EntityType",
	  									  "order":9999,
	  									  "subTypes":true,
	  									   "matches":"qattribute.attribute.name=='self'"
  									  },
  									  "icon":"icon-calendar",
  									  "className":"prefabware.plugins.prefabware.bootstrap.ExtensionWidgetEditor",
         							  "widgetClass":"prefabware.plugins.prefabware.bootstrap.widgets.EditorWidget",  
         							  "bindingClass":"prefabware.app.WidgetBindingEditor"},							  
  						{"extensionPoint":"prefabware.ui.widget",
  									  "id":"prefabware.bootstrap.compositeWidget",
   									  "matcher":{
	  									  "type":"prefabware.model.CompositeType",
	  									  "subTypes":true,
	  									   "matches":"qattribute.attribute.max==1&&qattribute.attribute.containment==true"
  									  },
  									  "icon":"icon-calendar",
  									  "className":"prefabware.plugins.prefabware.bootstrap.ExtensionWidgetEditor",
         							  "widgetClass":"prefabware.plugins.prefabware.bootstrap.widgets.CompositeWidget",  
         							  "bindingClass":"prefabware.app.WidgetBindingEditor"},							  
  						{"extensionPoint":"prefabware.ui.widget",
  									  "id":"prefabware.bootstrap.inputSelectEnumWidget",
   									  "matcher":{
	  									  "type":".*",
	  									  "matches":"qattribute.attribute.max==1&&qattribute.attribute.type.isEnumeration"
  									  },  									  
  									  "className":"prefabware.plugins.prefabware.bootstrap.ExtensionWidgetInputSelectEnumeration",
         							  "widgetClass":"prefabware.plugins.prefabware.bootstrap.widgets.SelectEnumWidget2",							  
         							  "bindingClass":"prefabware.plugins.prefabware.bootstrap.WidgetBindingSelectEnumeration"},
  						
  						{"extensionPoint":"prefabware.ui.widget",
  									  "id":"prefabware.bootstrap.inputSelectReferenceWidget2",
   									  "matcher":{
	  									  "type":"prefabware.model.EntityType",
	  									  "subTypes":true,
	  									  "matches":"qattribute.attribute.name!='self'&&qattribute.attribute.max==1&&qattribute.attribute.containment==false&&!qattribute.attribute.type.isEnumeration"
  									  },  									  
  									  "className":"prefabware.plugins.prefabware.bootstrap.ExtensionWidgetInputSelectReference",
         							  "widgetClass":"prefabware.plugins.prefabware.bootstrap.widgets.BsSelectReferenceWidget2",							  
         							  "bindingClass":"prefabware.plugins.prefabware.bootstrap.WidgetBindingSelectReference2"},

  						{"extensionPoint":"prefabware.ui.widget",
  									  "id":"prefabware.bootstrap.selectReferencesWidget",
   									  "matcher":{
	  									  "type":"prefabware.model.EntityType",
	  									  "subTypes":true,
	  									  "matches":"qattribute.attribute.name!='self'&&qattribute.attribute.max>1&&qattribute.attribute.containment==false&&!qattribute.attribute.type.isEnumeration"
  									  },  									  
  									  "className":"prefabware.plugins.prefabware.bootstrap.ExtensionWidgetInputSelectReference",
         							  "widgetClass":"prefabware.plugins.prefabware.bootstrap.widgets.SelectReferencesWidget",							  
         							  "bindingClass":"prefabware.plugins.prefabware.bootstrap.WidgetBindingSelectReference2"},
  						
  						{"extensionPoint":"prefabware.ui.widget",
  									  "id":"prefabware.bootstrap.viewWidget",
   									  "matcher":{
	  									  "type":"prefabware.model.CompositeType",
	  									  "subTypes":true,
	  									  "matches":"qattribute.attribute.max>1&&qattribute.attribute.containment"
  									  },  									  
  									  "icon":"icon-calendar",
  									  "className":"prefabware.plugins.prefabware.bootstrap.ExtensionWidgetTable",
         							  "bindingClass":"prefabware.plugins.prefabware.bootstrap.WidgetBindingView"},
         				{"extensionPoint":"prefabware.ui.widget",
  									  "id":"prefabware.bootstrap.checkboxWidget",
  									  "createLabel":false,
   									  "matcher":{
	  									  "type":"prefabware.model.BooleanType"
  									  },  									  
  									  "className":"prefabware.plugins.prefabware.bootstrap.ExtensionWidgetInput",
         							  "widgetClass":"prefabware.plugins.prefabware.bootstrap.widgets.Checkbox"},	
         				{"extensionPoint":"prefabware.ui.widget",
  									  "id":"prefabware.bootstrap.inputTextAreaWidget",
   									  "matcher":{
	  									  "type":".*",
	  									  "order":9990,
	  									  "matches":"qattribute.attribute.length>80"
  									  },  									  
  									  "className":"prefabware.plugins.prefabware.bootstrap.ExtensionWidgetInput",
         							  "widgetClass":"prefabware.plugins.prefabware.bootstrap.widgets.InputTextAreaWidget"},	
         				{"extensionPoint":"prefabware.ui.widget",
  									  "id":"prefabware.bootstrap.inputTextWidget",
   									  "matcher":{
	  									  "type":".*",
	  									  "order":9999
  									  },  									  
  									  "className":"prefabware.plugins.prefabware.bootstrap.ExtensionWidgetInput",
         							  "widgetClass":"prefabware.plugins.prefabware.bootstrap.widgets.InputTextWidget"}	
 						],  
 "dependencies" : [{"namespace":"prefabware.plugins","id":"prefabware.ui"},
 				   {"namespace":"prefabware.plugins","id":"prefabware.action"},
 				   {"namespace":"prefabware.plugins","id":"prefabware.resource"},
 				   {"namespace":"prefabware.plugins","id":"prefabware.action.base"},
 				   {"namespace":"prefabware.plugins","id":"prefabware.store"},
 				   {"namespace":"prefabware.plugins","id":"prefabware.bootstrap"}
 				  ]  		           
}