[{
	"pfw_type":"prefabware.model.ValueType"
	,"name":"com.prefabware.business.commons.BaseQuantitiyUnit"
	,"enumeration":true
	,"elements":[
		{"name":"METER","value":"METER"}
		,{"name":"GRAM","value":"GRAM"}
		,{"name":"SECOND","value":"SECOND"}
		,{"name":"PIECE","value":"PIECE"}
		,{"name":"SQUARE_METER","value":"SQUARE_METER"}
		,{"name":"CUBIC_METER","value":"CUBIC_METER"}
	]}
,{
   "pfw_type":"prefabware.model.ValueType",
   "name":"com.prefabware.business.commons.Amount", 
   "attributes":[
      {
         "pfw_type":"prefabware.model.Attribute",
         "name":"value",
         "type":"prefabware.model.DecimalType",
         "length":10,
         "decimals":2
      },
      {
         "pfw_type":"prefabware.model.ReferenceAttribute",
         "name":"currency",
         "type":"com.prefabware.business.commons.Currency",
          "containment":false
      },
      {
         "pfw_type":"prefabware.model.Attribute",
         "name":"decimals",
         "type":"prefabware.model.NumberType",
          "length":1,
          "_default":2,
      },
      {
         "pfw_type":"prefabware.model.Attribute",
         "name":"description",
         "type":"prefabware.model.StringType",
          "length":50
      }
   ]
},
{
   "pfw_type":"prefabware.model.EntityType",
   "name":"com.prefabware.business.commons.QuantityUnit",
   "attributes":[
      {
         "pfw_type":"prefabware.model.Attribute",
         "name":"name",
         "type":"prefabware.model.StringType",
         "length":3
      },      
      {
         "pfw_type":"prefabware.model.Attribute",
         "name":"description",
         "type":"prefabware.model.StringType",
          "length":50
      },
      {
         "pfw_type":"prefabware.model.Attribute",
         "name":"baseUnit",
         "type":"com.prefabware.business.commons.BaseQuantitiyUnit"
      },
      {
         "pfw_type":"prefabware.model.Attribute",
         "name":"factor",
         "type":"prefabware.model.DecimalType",
          "length":10,
          "decimals":5
      }
   ]
}
,{
   "pfw_type":"prefabware.model.EntityType",
   "name":"com.prefabware.business.commons.Currency2",
   "attributes":[
      {
         "pfw_type":"prefabware.model.Attribute",
         "name":"code",
         "type":"prefabware.model.StringType",
         "length":3
      },
      {
         "pfw_type":"prefabware.model.Attribute",
         "name":"symbol",
         "type":"prefabware.model.StringType",
          "length":1
      },
      {
         "pfw_type":"prefabware.model.Attribute",
         "name":"decimals",
         "type":"prefabware.model.NumberType",
          "length":1,
          "_default":2,
      },
      {
         "pfw_type":"prefabware.model.Attribute",
         "name":"description",
         "type":"prefabware.model.StringType",
          "length":50
      }
   ]
}
,{
   "pfw_type":"prefabware.model.EntityType",
   "name":"com.prefabware.business.commons.Currency",
   "attributes":[
      {
         "pfw_type":"prefabware.model.Attribute",
         "name":"code",
         "type":"prefabware.model.StringType",
         "length":3
      },
      {
         "pfw_type":"prefabware.model.Attribute",
         "name":"symbol",
         "type":"prefabware.model.StringType",
          "length":1
      },
      {
         "pfw_type":"prefabware.model.Attribute",
         "name":"decimals",
         "type":"prefabware.model.NumberType",
          "length":1,
          "_default":2,
      },
      {
         "pfw_type":"prefabware.model.Attribute",
         "name":"description",
         "type":"prefabware.model.StringType",
          "length":50
      }
   ]
}]