{'id':'prefabware.model.tests.subtype',
	'comment':'for lifecycle plugin test',
 	'extensionPoints' : [
  						{	 'id':'prefabware.model.tests.subtype.converter'
  							,'min':0,'max':99999,lazy:false
  							,'matcher'   : {
					 					'className'  : 'prefabware.model.match.TypeMatcher',
        	              					},
  							},
  						],
	'extensions' : [
	{'extensionPoint':'prefabware.model.tests.subtype.converter',
							'string':'registered for Party'
							,'matcher':{
									   'type':'test.Party',
									   'subTypes':true
									   }
							  },
	],
  	'dependencies':[{'id':'prefabware.model.local'}]  
}