{"id":"prefabware.business.receivables", "className":"prefabware.plugins.prefabware.business.receivables.Plugin",
"extensions" : [
					
					{"extensionPoint":"prefabware.resource.resource"
  									  ,"namespace":"prefabware.plugins.prefabware.business.receivables.nls"
  									  ,"matcher"   : {
  									  "comment":"a matcher with value is obligatory for this extension",
											"value"  : "label"
        											 }
  									  },
  					{"extensionPoint":"prefabware.resource.resource"
  									  ,"namespace":"prefabware.plugins.prefabware.business.receivables.nls"
  									  ,"matcher"   : {
  									  "comment":"a matcher with value is obligatory for this extension",
											"value"  : "icon"
        											 }
  									  },
											   
  					{"extensionPoint":"prefabware.ui.editormodel", 
  									   "matcher":{
										   "type":"com.prefabware.business.receivables.entity.OffenePosten"
									   },
									   "modal":false,
									   },  									  
  					{"extensionPoint":"prefabware.ui.editormodel", 
  									   "matcher":{
										   "type":"com.prefabware.business.receivables.entity.ReportOpNachHoehe"
									   },
									   "modal":false,
									   },  									  
  					{"extensionPoint":"prefabware.ui.editormodel", 
  									   "matcher":{
										   "type":"com.prefabware.business.receivables.entity.ReportOpNachHoeheItem"
									   },
									   "modal":false,
									   }  									  
  							],
"dependencies":[{"id":"prefabware.store"},{"id":"prefabware.model"},{"id":"prefabware.ui"}]  							
}