{
   "pfw_type":"prefabware.model.EntityType",
   "name":"com.prefabware.business.commons.QuantityUnit",
   "attributes":[
      {
         "pfw_type":"prefabware.model.Attribute",
         "name":"name",
         "type":"prefabware.model.StringType",
         "length":3
      },      
      {
         "pfw_type":"prefabware.model.Attribute",
         "name":"description",
         "type":"prefabware.model.StringType",
          "length":50
      },
      {
         "pfw_type":"prefabware.model.Attribute",
         "name":"baseUnit",
         "type":"com.prefabware.business.commons.BaseQuantitiyUnit"
      },
      {
         "pfw_type":"prefabware.model.Attribute",
         "name":"factor",
         "type":"prefabware.model.DecimalType",
          "length":10,
          "decimals":5
      }
   ]
}