{'id':'override.a',
'extensionPoints' : [
	{'id':'override.a.typeicon', 'min':0,'max':99999}
],
'extensions':[
{'extensionPoint':'override.a.typeicon', 'id':'extensionId1', 'icon':'originalIcon'},
{'extensionPoint':'override.a.typeicon', 'id':'extensionId1', 'icon':'overridingIcon', override:true}
]
}