{ 'id':'prefabware.server', 'className':'prefabware.plugins.prefabware.server.Plugin','startLevel':1000,
  'extensionPoints' : [
  {'id':'prefabware.server.server', 'extensionClass':'prefabware.plugins.prefabware.server.ExtensionServer','min':0,'max':99999},
  ]
}