{ 'id':'prefabware.bootstrap.tests', 
  'comment'    : 'to test ui plugin',
'extensions' : [
	{'extensionPoint':'prefabware.ui.application',
  									  'id':'plugins-ui-test',
  									  'i18n':'dojo/i18n!prefabware/plugins/prefabware/bootstrap/tests/nls/labels'
  									  },  							
										  	
	{'extensionPoint':'prefabware.ui.messageprovider'  },  	
  									  
    {'extensionPoint':'prefabware.ui.typeicon', 'type':'com.prefabware.business.address.Country', 'icon':' icon-flag' },
    {'extensionPoint':'prefabware.ui.typeicon', 'type':'com.prefabware.business.commons.Product', 'icon':' icon-barcode' },
    {'extensionPoint':'prefabware.ui.typeicon', 'type':'com.prefabware.business.Invoice', 'icon':' icon-money' },
    {'extensionPoint':'prefabware.ui.typeicon', 'type':'com.prefabware.business.InvoiceLine', 'icon':' icon-money' },
    {'extensionPoint':'prefabware.ui.typeicon', 'type':'com.prefabware.business.Customer', 'icon':' icon-user-md' },
    {'extensionPoint':'prefabware.ui.typeicon', 'type':'com.prefabware.business.commons.Currency', 'icon':' icon-money' },
    {'extensionPoint':'prefabware.ui.typeicon', 'type':'com.prefabware.business.commons.QuantityUnit', 'icon':'  icon-dashboard' },
    {'extensionPoint':'prefabware.ui.typeicon', 'type':'com.prefabware.business.address.City', 'icon':'   icon-road' },
    {'extensionPoint':'prefabware.ui.typeicon', 'type':'.*', 'icon':' icon-warning-sign' },
  	
  		
  		{'extensionPoint':'prefabware.service.service',
									  'className':'prefabware.plugins.prefabware.store.ExtensionStoreService',
									  'id'     :'prefabware.service.store',
									  'serverId' :'prefabware.server.store',
  									  'urlPath':'plugins-bootstrap/api'
  									  },
		{'extensionPoint':'prefabware.server.server',
  									  'id':'prefabware.server.store',
  									  'urlPath':'plugins-bootstrap/api'
  									  }, 
		{'extensionPoint':'prefabware.server.server',
  									  'id':'prefabware.server.api',
									  'comment':'to get the /api url',
  									  'urlPath':'plugins-bootstrap/api'
  									  }, 
		{'extensionPoint':'prefabware.server.server',
  									  'id':'prefabware.server.mailChimp',
  									  'urlPath':'plugins-bootstrap/api'
  									  }, 
{'extensionPoint':'prefabware.ui.messageprovider'},  
	{'extensionPoint':'prefabware.model.typeLoader',
							 'id':'typeTypeLoader1',
							 'className':'prefabware.plugins.prefabware.model.ExtensionTypeLoaderFile',
							 'resources':[
							 {'resource':'prefabware.plugins.prefabware.bootstrap.tests.currency-type.json'},
							 {'resource':'prefabware.plugins.prefabware.bootstrap.tests.amount-type.json'},
							 {'resource':'prefabware.plugins.prefabware.bootstrap.tests.quantityUnit-type.json'},
							 {'resource':'prefabware.plugins.prefabware.bootstrap.tests.allattributes-type.json'},
							 {'resource':'prefabware.plugins.prefabware.bootstrap.tests.embeddedwith3-type.json'},
							 {'resource':'prefabware.plugins.prefabware.bootstrap.tests.baseunit-type.json'},
							 ]
},
{"extensionPoint":"prefabware.resource.resource"
  									  ,"namespace":"prefabware.plugins.prefabware.bootstrap.tests.nls"
  									  ,"matcher"   : {
  									  	"comment":"a matcher with value is obligatory for this extension"
									  	,"value"  : "label"
        											 },  									  
  									  },					  			
{'extensionPoint':'prefabware.ui.menus',
  									  'menu':'masterData.allAttributes',
  									   'matcher'     : {'value':'menu'},
  									  'actionId':'openView',
  									  'type':'prefabware.bootstrap.tests.AllAttributes',
  									  },						   


{'extensionPoint':'prefabware.ui.menus',
  									  'menu':'masterData.allAttributes',
  									   'matcher'     : {'value':'sidebar'},
  									  'actionId':'openView',
  									  'type':'prefabware.bootstrap.tests.AllAttributes',
  									  },						   
		{'extensionPoint':'prefabware.store.store', 
  									   'id':'allAttributesStore',
  									   'override':'true',
  									   'className':'prefabware.plugins.prefabware.store.ExtensionMemoryStore',
  									   'matcher':{
  									  'type':'prefabware.bootstrap.tests.AllAttributes',
									   },
									   'data':[
				 	 						{"string":" a simple string"
				 	 						,"date":"1967-08-30"
				 	 						,"enum":"KG"
				 	 						,"number":4711
				 	 						,"boolean":true
				 	 						,"reference_1":{
				 	 								"pfw_id":1
				 	 								,"pfw_type":"com.prefabware.business.commons.Currency"
				 	 								,"version":null}
				 	 						,"pfw_id":4711
				 	 						,"version":null
				 	 						,"pfw_type":"prefabware.bootstrap.tests.AllAttributes"}				 	 		  
				 	 						,{"string":" 2 simple string"
				 	 						,"date":"1967-08-30"
				 	 						,"enum":"KG"
				 	 						,"number":4712
				 	 						,"boolean":true
				 	 						,"reference_1":{
				 	 								"pfw_id":1
				 	 								,"pfw_type":"com.prefabware.business.commons.Currency"
				 	 								,"version":null}
				 	 						,"pfw_id":4712
				 	 						,"version":null
				 	 						,"pfw_type":"prefabware.bootstrap.tests.AllAttributes"}				 	 		  
				 	 						,{"string":" 3 simple string"
				 	 						,"date":"1967-08-30"
				 	 						,"enum":"KG"
				 	 						,"number":4713
				 	 						,"boolean":true
				 	 						,"reference_1":{
				 	 								"pfw_id":1
				 	 								,"pfw_type":"com.prefabware.business.commons.Currency"
				 	 								,"version":null}
				 	 						,"pfw_id":4713
				 	 						,"version":null
				 	 						,"pfw_type":"prefabware.bootstrap.tests.AllAttributes"}				 	 		  
							 	 		 ]
									   },
		{'extensionPoint':'prefabware.store.store', 
  									   'id':'quantityUnitStore',
  									   'override':'true',
  									   'className':'prefabware.plugins.prefabware.store.ExtensionMemoryStore',
  									   'matcher':{
									   'type':'com.prefabware.business.commons.QuantityUnit'
									   },
									   'data':[
							 	 			{"pfw_type":"com.prefabware.business.commons.QuantityUnit"
							 	 						,"name":"meter"
							 	 						,"description":"length in meter"
							 	 						,"baseUnit":"meter"
							 	 						,"factor":1
							 	 						,"version":null,"pfw_id":4711}
							 	 		   ,{"pfw_type":"com.prefabware.business.commons.QuantityUnit"
							 	 		   				,"name":"kilo"
							 	 		   				,"description":"weight in kilo"
							 	 		   				,"baseUnit":"kilo"
							 	 						,"factor":1
							 	 		   				,"version":null,"pfw_id":4712}
							 	 		 ]
									   },
		{'extensionPoint':'prefabware.store.store', 
  									   'id':'currencyStore',
  									   'override':'true',
  									   'className':'prefabware.plugins.prefabware.store.ExtensionMemoryStore',
  									   'matcher':{
									   'type':'com.prefabware.business.commons.Currency'
										   },
									   'data':[
							 	 			{"pfw_type":"com.prefabware.business.commons.Currency",
							 	 				"code":"EUR",
							 	 				"symbol":"€",
							 	 				"decimals":2,
							 	 				"description":"Euro",
							 	 				"version":null,
							 	 				"pfw_id":1,
							 	 				},
							 	 			{"pfw_type":"com.prefabware.business.commons.Currency",
							 	 				"code":"USD",
							 	 				"symbol":"$",
							 	 				"decimals":2,
							 	 				"description":"US-Dollar",
							 	 				"version":null,
							 	 				"pfw_id":2,
							 	 				}
							 	 		 ]
									   },  	 									  									  			
],
'dependencies' : [
{'namespace':'prefabware.plugins','id':'prefabware.bootstrap'},
{'namespace':'prefabware.plugins','id':'prefabware.bootstrap.widgets'}
  ]					
}