{ 'id':'prefabware.server.single', 
  'comment'    : 'a single server hosting both, ui and the services. No serverUrl is set, so the url of the html page is used',
'extensions' : [
  					
					{'extensionPoint':'prefabware.server.web',
  									  'id':'single',
  									  'context':'prefabware-appdriver/rest'
  									  }					
  							],
  							'dependencies':[{'id':'prefabware.server'}]
}