{"id":"prefabware.business.commons.navbar",
 "comment":"to show all menu items in the navbar",
"extensions" : [
  					{"extensionPoint":"prefabware.ui.menus",
  									  "menu":"basicData.branch",
  									  "actionId":"openView",
  									  "type":"com.prefabware.business.party.Branch",
  									  "matcher":{"value":"menu"}	
  									  },
  					{"extensionPoint":"prefabware.ui.menus",
  									  "menu":"basicData.country",
  									  "actionId":"openView",
  									  "type":"com.prefabware.business.address.Country",
  									  "matcher":{"value":"menu"}
  									  },
  					{"extensionPoint":"prefabware.ui.menus",
  									  "menu":"basicData.city",
  									  "actionId":"openView",
  									  "type":"com.prefabware.business.address.City",
									  "matcher":{"value":"menu"}	
  									  },
  					{"extensionPoint":"prefabware.ui.menus",
  									  "menu":"basicData.currency",
  									  "actionId":"openView",
  									  "type":"com.prefabware.business.currency.Currency",
  									  "matcher":{"value":"menu"}  									  	
  									  },
					{"extensionPoint":"prefabware.ui.menus",
  									  "menu":"basicData.paymentTerm",
  									  "actionId":"openView",
  									  "type":"com.prefabware.business.commons.PaymentTerm",
  									  "matcher":{"value":"menu"}	
  									  },
  					{"extensionPoint":"prefabware.ui.menus",
  									  "menu":"basicData.quantityUnit",
  									  "actionId":"openView",
  									  "type":"com.prefabware.business.commons.QuantityUnit",
  									  "matcher":{"value":"menu"}
									   },
				 									  
					{"extensionPoint":"prefabware.ui.menus",
  									  "menu":"contacts.company",
  									  "actionId":"openView",
  									  "type":"com.prefabware.business.party.Company",
  									  "matcher":{"value":"menu"}
  									  },
					{"extensionPoint":"prefabware.ui.menus",
  									  "menu":"masterData.product",
  									  "actionId":"openView",
  									  "type":"com.prefabware.business.product.Product",
  									  "matcher":{"value":"menu"}
  									  },  				  	
					{"extensionPoint":"prefabware.ui.menus",
  									  "menu":"contacts.person",
  									  "actionId":"openView",
  									  "type":"com.prefabware.business.party.Person",
  									  "matcher":{"value":"menu"}
  									  },				
  							],
"dependencies":[
	 {"id":"prefabware.business.commons"}							
}