{'id':'prefabware.model.tests.typeloader',
'comment':'for lifecycle plugin test',
'extensions' : [
					{'extensionPoint':'prefabware.model.typeLoader',
							 'id':'typeTypeLoader1',
							 'className':'prefabware.plugins.prefabware.model.ExtensionTypeLoaderFile',
							 'resources':[
							 {'resource':'prefabware.plugins.prefabware.model.tests.typeloader.currency-type.json'},
							 {'resource':'prefabware.plugins.prefabware.model.tests.typeloader.amount-type.json'}
							 ]
					},
					{'extensionPoint':'prefabware.model.attributeCustomizer',
							 'id':'currencyCustomizer',
							 'matcher':{
							 	'pattern'   :'com.prefabware.business.commons.Currency.code',							 	
							 	},
							 'options':{length:3,isLabel:true,isKey:true}
							 },
					{'extensionPoint':'prefabware.model.typeCustomizer', 
									   'matcher':{
									   'type':'com.prefabware.business.commons.Amount',
									 	},
									   'instanceClass':'prefabware.plugins.prefabware.model.tests.typeloader.Amount',
									   },
  							],
  	'dependencies':[{'id':'prefabware.model'}]  
}