{
'imports':[		
],  
'plugins':[ 
			{'namespace':'prefabware.plugins','id':'prefabware.store'},
			{'namespace':'prefabware.plugins','id':'prefabware.server'},
			{'namespace':'prefabware.plugins','id':'prefabware.store.spring.tests'}
			]
}