{
   "pfw_type":"prefabware.model.EntityType",
   "name":"com.prefabware.business.commons.WithWithAmount", 
   "attributes":[
      {
         "pfw_type":"prefabware.model.Attribute",
         "name":"amount",
         "type":"com.prefabware.business.commons.WithAmount",
      },
   ]
}