{'id':'a.b',
'comment'    : 'basic actions, normally required by all app',
'extensions' : [
  					
					{'extensionPoint':'prefabware.action.action',
  									  'id':'deleteAction',
         							  'type':'.*',
         							  'iconClass':'dijitEditorIcon dijitEditorIconDelete',
         							  'className':'prefabware.plugins.prefabware.action.ActionDelete'
  									  },
					{'extensionPoint':'prefabware.action.action',
  									  'id':'createAction',
         							  'type':'.*',
         							  'iconClass':'dijitEditorIcon dijitEditorIconNewPage',
         							  'className':'prefabware.plugins.prefabware.action.ActionCreate'
  									  },
					{'extensionPoint':'prefabware.action.action',
  									  'id':'saveAction',
         							  'type':'.*',
         							  'iconClass':'dijitEditorIcon dijitEditorIconSave',
         							  'className':'prefabware.plugins.prefabware.action.ActionSave'
         							  },

					{'extensionPoint':'prefabware.action.action',
  									  'id':'openViewAction',
         							  'type':'.*',
         							  'iconClass':'dijitIconTable',
         							  'className':'prefabware.plugins.prefabware.action.ActionOpenView'
  									  },
					{'extensionPoint':'prefabware.action.action',
  									  'id':'openEditorAction',
         							  'type':'.*',
         							  'iconClass':'dijitIconEditProperty',
         							  'className':'prefabware.plugins.prefabware.action.ActionOpenEditor'
  									  }
  							]
}