{"id":"prefabware.business.sales.navbar"
"extensions" : [
  					{"extensionPoint":"prefabware.ui.menus",
  									  "menu":"sales.customer",
  									  "actionId":"openView",
  									  "type":"com.prefabware.business.sales.entity.Customer",
  									  "matcher":{ "value":"menu"}	
  									  },
  					{"extensionPoint":"prefabware.ui.menus",
  									  "menu":"sales.invoice",
  									  "actionId":"openView",
  									  "type":"com.prefabware.business.sales.invoice.Invoice",
  									  "matcher":{ "value":"menu"}	
  									  }  					
  							],
"dependencies":[{"id":"prefabware.business.sales"}]  							
}