{ 'id':'prefabware.resource.tests.many', 
  'comment'    : 'for resourcetest',
'extensions' : [
					{'extensionPoint':'prefabware.resource.resource'
  									  ,'namespace':'prefabware.plugins.prefabware.resource.tests.many.nls'
  									  ,'locale':'en'
  									  ,'matcher'   : {
  									  	'comment':'a matcher with value is obligatory for this extension'
									  	,'value'  : 'label'
        											 },
  									  },  									  
				],
'dependencies' : [{id:'prefabware.resource'}]  					  									  
}