
{ 'id':'prefabware.business.commons.tests', 
  'comment'    : 'to test ui plugin',
'extensions' : [
{'extensionPoint':'prefabware.server.server',
  									  'id':'loclhost',
  									  'url':'http://localhost:8080/business-commons'									  
  									  }	,
									  	
	{'extensionPoint':'prefabware.ui.messageprovider'},  
	{'extensionPoint':'prefabware.model.typeLoader',
							 'id':'typeTypeLoader1',
							 'className':'prefabware.plugins.prefabware.model.ExtensionTypeLoaderFile',
							 'resources':[
							 {'resource':'prefabware.plugins.prefabware.business.commons.tests.currency-type.json'},
							 {'resource':'prefabware.plugins.prefabware.business.commons.tests.amount-type.json'},
							 {'resource':'prefabware.plugins.prefabware.business.commons.tests.quantityUnit-type.json'},
							 ]
					},									  	
],
'dependencies' : [
 {'namespace':'prefabware.plugins','id':'prefabware.business.commons'},  					
 {'namespace':'prefabware.plugins','id':'prefabware.action.base'}  					
 ]  	
}