{'id':'attributes.a',
'comment'    : 'a depends on b',
'extensions':[
{'extensionPoint':'attributes.b.typeicon',
  									  'icon':'theicon'}
],
'dependencies' : [
					{'id':'attributes.b',
  						  'optional':false,
  					  },
				  ]
}