{'id':'prefabware.model.tests.behaviour',
'comment':'for behaviour plugin test',
'extensions' : [
					{'extensionPoint':'prefabware.model.behaviour',
						behaviorClass:'prefabware.plugins.prefabware.model.tests.behaviour.CityEditorBehaviour',
						matcher:{
							value:{
							  'type'  :'test.City'
							 ,'sender':"editor",trigger:"beforeLoad"
							 	}
							 ,'order' :10
						}
					 }
  							],
  	'dependencies':[{'id':'prefabware.model'}]  
}