{'id':'prefabware.business.commons.document',
'comment':'INACTIVE, just for future use',
'extensions' : [
					{"extensionPoint":"prefabware.action.action",
         							  "iconClass":" icon-file",
         							  "matcher"   : {
					 				  "actionId"   : "createReport",
	  								   "type":"com.prefabware.business.commons.document.TemplatedDocument"
					              					}
  									  },			
					{"extensionPoint":"prefabware.ui.menus",
  									  "menu":"documents.documentLink",
  									  "actionId":"openView",
  									  "type":"com.prefabware.business.commons.document.DocumentLink",
  									  "matcher":{"value":"menu"}
  									  },				    									  
  					{"extensionPoint":"prefabware.ui.menus",
  									  "menu":"documents.documentType",
  									  "actionId":"openView",
  									  "type":"com.prefabware.business.commons.document.DocumentType",
  									  "matcher":{"value":"menu"}  									  	
  									  }	,			    									  
  					{"extensionPoint":"prefabware.ui.menus",
  									  "menu":"documents.template",
  									  "actionId":"openView",
  									  "type":"com.prefabware.business.commons.document.Template",
  									  "matcher":{"value":"menu"}
  									  }
  							],
}