{ 'id':'prefabware.server.cloudbees', 
  'comment'    : 'use this to depoy at cloudbees.A single server hosting both, ui and the services. No serverUrl is set, so the url of the html page is used. The cloudbees does not need the full context with prefabware-appdriver',
'extensions' : [
  					
					{'extensionPoint':'prefabware.server.server',
  									  'id':'cloudbees',
  									  },	
					{'extensionPoint':'prefabware.server.server',
  									  'id':'prefabware.server.store',
  									  },
					{'extensionPoint':'prefabware.server.server',
  									  'id':'prefabware.server.isEnumeration',
  									  },
  					{'extensionPoint':'prefabware.service.service',
									  'id'     :'prefabware.service.appdriver.rest',
									  'serverId' :'cloudbees',
  									  'urlPath':'rest',
  									  },				
  					{'extensionPoint':'prefabware.service.service',
									  'id'     :'prefabware.service.model',
									  'serverId' :'cloudbees',
  									  'urlPath':'rest/modelService',
  									  }				  									  
  									  
  									  				
  							],
'dependencies':[{'id':'prefabware.server'},{'id':'prefabware.service'}]
}