{'id':'testPlugin','extensions' : [
  									  
  					{'extensionPoint':'prefabware.ui.view', 
  									   'id':'emailView',
									   'type':'test.Email',
									   'columns':[{'name':'name'},{'name':'address'}],
									   }

  							]
}